[
    {"name": "Cleaner"},
    {"name": "Plumbing"},
    {"name": "Electrician"},
    {"name": "Sitter"},
    {"name": "Gardener"},
    {"name": "Driver"},
    {"name": "Helper"},
    {"name": "Others"}
]
